	.data
	.globl _arg1
	.align 4
_arg1:
	.long 1
	.globl _mod
	.align 4
_mod:
	.long 2
	.globl _mod_part
	.align 4
_mod_part:
	.long 3
	.globl _mod_whole
	.align 4
_mod_whole:
	.long 4
	.globl _print_num
	.align 4
_print_num:
	.long 5

	.comm _main_valtable, 96

	.text
	.globl _program1
_program1:
	enter $0, $0
	pushl %ebp
	movl %esp, %ebp
	pushl $0x40000000
	pushl $0x0
	movl $0, %eax
	addl $_main_valtable, %eax
	movl (%esp), %ebx
	movl %ebx, 4(%eax)
	movl 4(%esp), %ebx
	movl %ebx, 8(%eax)
	movl $0, %eax
	addl $_main_valtable, %eax
	pushl 8(%eax)
	pushl 4(%eax)
	pushl $0x40140000
	pushl $0x0
	fldl (%esp)
	fldl 8(%esp)
	fadd %st(1), %st(0)
	subl $8, %esp
	fstl (%esp)
	movl $0, %eax
	leave
	ret
